PYROEXPORT HEADER
RootFile,/Users/hperrey/TaggedNeutrons/Data/Data642.root
HistTitle,TDC c1_5_3
XAxis,
YAxis,
NBins,2048
DATA
lower bin edge,bin content,bin error
0.0,642.0,25.337718918639855
1.0,0.0,0.0
2.0,0.0,0.0
3.0,0.0,0.0
4.0,1.0,1.0
5.0,0.0,0.0
6.0,2.0,1.4142135623730951
7.0,0.0,0.0
8.0,2.0,1.4142135623730951
9.0,0.0,0.0
10.0,1.0,1.0
11.0,3.0,1.7320508075688772
12.0,1.0,1.0
13.0,3.0,1.7320508075688772
14.0,2.0,1.4142135623730951
15.0,3.0,1.7320508075688772
16.0,0.0,0.0
17.0,6.0,2.449489742783178
18.0,3.0,1.7320508075688772
19.0,5.0,2.23606797749979
20.0,2.0,1.4142135623730951
21.0,1.0,1.0
22.0,3.0,1.7320508075688772
23.0,1.0,1.0
24.0,1.0,1.0
25.0,5.0,2.23606797749979
26.0,3.0,1.7320508075688772
27.0,4.0,2.0
28.0,3.0,1.7320508075688772
29.0,1.0,1.0
30.0,1.0,1.0
31.0,1.0,1.0
32.0,2.0,1.4142135623730951
33.0,3.0,1.7320508075688772
34.0,1.0,1.0
35.0,6.0,2.449489742783178
36.0,3.0,1.7320508075688772
37.0,1.0,1.0
38.0,2.0,1.4142135623730951
39.0,1.0,1.0
40.0,5.0,2.23606797749979
41.0,1.0,1.0
42.0,3.0,1.7320508075688772
43.0,0.0,0.0
44.0,3.0,1.7320508075688772
45.0,9.0,3.0
46.0,6.0,2.449489742783178
47.0,0.0,0.0
48.0,1.0,1.0
49.0,2.0,1.4142135623730951
50.0,1.0,1.0
51.0,2.0,1.4142135623730951
52.0,2.0,1.4142135623730951
53.0,4.0,2.0
54.0,2.0,1.4142135623730951
55.0,2.0,1.4142135623730951
56.0,0.0,0.0
57.0,3.0,1.7320508075688772
58.0,3.0,1.7320508075688772
59.0,2.0,1.4142135623730951
60.0,3.0,1.7320508075688772
61.0,1.0,1.0
62.0,1.0,1.0
63.0,2.0,1.4142135623730951
64.0,1.0,1.0
65.0,5.0,2.23606797749979
66.0,5.0,2.23606797749979
67.0,3.0,1.7320508075688772
68.0,1.0,1.0
69.0,2.0,1.4142135623730951
70.0,3.0,1.7320508075688772
71.0,5.0,2.23606797749979
72.0,4.0,2.0
73.0,0.0,0.0
74.0,3.0,1.7320508075688772
75.0,1.0,1.0
76.0,2.0,1.4142135623730951
77.0,1.0,1.0
78.0,4.0,2.0
79.0,2.0,1.4142135623730951
80.0,2.0,1.4142135623730951
81.0,4.0,2.0
82.0,5.0,2.23606797749979
83.0,2.0,1.4142135623730951
84.0,2.0,1.4142135623730951
85.0,5.0,2.23606797749979
86.0,2.0,1.4142135623730951
87.0,3.0,1.7320508075688772
88.0,6.0,2.449489742783178
89.0,2.0,1.4142135623730951
90.0,1.0,1.0
91.0,3.0,1.7320508075688772
92.0,7.0,2.6457513110645907
93.0,2.0,1.4142135623730951
94.0,3.0,1.7320508075688772
95.0,3.0,1.7320508075688772
96.0,1.0,1.0
97.0,4.0,2.0
98.0,2.0,1.4142135623730951
99.0,4.0,2.0
100.0,1.0,1.0
101.0,5.0,2.23606797749979
102.0,5.0,2.23606797749979
103.0,3.0,1.7320508075688772
104.0,4.0,2.0
105.0,5.0,2.23606797749979
106.0,3.0,1.7320508075688772
107.0,6.0,2.449489742783178
108.0,3.0,1.7320508075688772
109.0,4.0,2.0
110.0,3.0,1.7320508075688772
111.0,3.0,1.7320508075688772
112.0,1.0,1.0
113.0,3.0,1.7320508075688772
114.0,2.0,1.4142135623730951
115.0,2.0,1.4142135623730951
116.0,0.0,0.0
117.0,2.0,1.4142135623730951
118.0,2.0,1.4142135623730951
119.0,4.0,2.0
120.0,4.0,2.0
121.0,3.0,1.7320508075688772
122.0,1.0,1.0
123.0,3.0,1.7320508075688772
124.0,2.0,1.4142135623730951
125.0,3.0,1.7320508075688772
126.0,3.0,1.7320508075688772
127.0,3.0,1.7320508075688772
128.0,1.0,1.0
129.0,2.0,1.4142135623730951
130.0,6.0,2.449489742783178
131.0,2.0,1.4142135623730951
132.0,3.0,1.7320508075688772
133.0,5.0,2.23606797749979
134.0,4.0,2.0
135.0,3.0,1.7320508075688772
136.0,4.0,2.0
137.0,5.0,2.23606797749979
138.0,3.0,1.7320508075688772
139.0,3.0,1.7320508075688772
140.0,4.0,2.0
141.0,2.0,1.4142135623730951
142.0,3.0,1.7320508075688772
143.0,2.0,1.4142135623730951
144.0,2.0,1.4142135623730951
145.0,5.0,2.23606797749979
146.0,0.0,0.0
147.0,7.0,2.6457513110645907
148.0,2.0,1.4142135623730951
149.0,1.0,1.0
150.0,2.0,1.4142135623730951
151.0,3.0,1.7320508075688772
152.0,2.0,1.4142135623730951
153.0,6.0,2.449489742783178
154.0,2.0,1.4142135623730951
155.0,4.0,2.0
156.0,3.0,1.7320508075688772
157.0,5.0,2.23606797749979
158.0,1.0,1.0
159.0,5.0,2.23606797749979
160.0,2.0,1.4142135623730951
161.0,2.0,1.4142135623730951
162.0,1.0,1.0
163.0,3.0,1.7320508075688772
164.0,4.0,2.0
165.0,1.0,1.0
166.0,5.0,2.23606797749979
167.0,4.0,2.0
168.0,3.0,1.7320508075688772
169.0,2.0,1.4142135623730951
170.0,3.0,1.7320508075688772
171.0,6.0,2.449489742783178
172.0,1.0,1.0
173.0,5.0,2.23606797749979
174.0,3.0,1.7320508075688772
175.0,3.0,1.7320508075688772
176.0,4.0,2.0
177.0,3.0,1.7320508075688772
178.0,2.0,1.4142135623730951
179.0,6.0,2.449489742783178
180.0,3.0,1.7320508075688772
181.0,2.0,1.4142135623730951
182.0,3.0,1.7320508075688772
183.0,7.0,2.6457513110645907
184.0,2.0,1.4142135623730951
185.0,2.0,1.4142135623730951
186.0,1.0,1.0
187.0,2.0,1.4142135623730951
188.0,5.0,2.23606797749979
189.0,1.0,1.0
190.0,3.0,1.7320508075688772
191.0,2.0,1.4142135623730951
192.0,5.0,2.23606797749979
193.0,5.0,2.23606797749979
194.0,4.0,2.0
195.0,3.0,1.7320508075688772
196.0,2.0,1.4142135623730951
197.0,1.0,1.0
198.0,1.0,1.0
199.0,3.0,1.7320508075688772
200.0,2.0,1.4142135623730951
201.0,7.0,2.6457513110645907
202.0,2.0,1.4142135623730951
203.0,1.0,1.0
204.0,4.0,2.0
205.0,5.0,2.23606797749979
206.0,1.0,1.0
207.0,1.0,1.0
208.0,2.0,1.4142135623730951
209.0,2.0,1.4142135623730951
210.0,1.0,1.0
211.0,4.0,2.0
212.0,1.0,1.0
213.0,3.0,1.7320508075688772
214.0,4.0,2.0
215.0,2.0,1.4142135623730951
216.0,0.0,0.0
217.0,2.0,1.4142135623730951
218.0,3.0,1.7320508075688772
219.0,4.0,2.0
220.0,3.0,1.7320508075688772
221.0,2.0,1.4142135623730951
222.0,2.0,1.4142135623730951
223.0,8.0,2.8284271247461903
224.0,6.0,2.449489742783178
225.0,1.0,1.0
226.0,5.0,2.23606797749979
227.0,7.0,2.6457513110645907
228.0,1.0,1.0
229.0,4.0,2.0
230.0,2.0,1.4142135623730951
231.0,5.0,2.23606797749979
232.0,2.0,1.4142135623730951
233.0,5.0,2.23606797749979
234.0,1.0,1.0
235.0,3.0,1.7320508075688772
236.0,2.0,1.4142135623730951
237.0,3.0,1.7320508075688772
238.0,6.0,2.449489742783178
239.0,5.0,2.23606797749979
240.0,1.0,1.0
241.0,2.0,1.4142135623730951
242.0,4.0,2.0
243.0,7.0,2.6457513110645907
244.0,3.0,1.7320508075688772
245.0,1.0,1.0
246.0,1.0,1.0
247.0,3.0,1.7320508075688772
248.0,1.0,1.0
249.0,2.0,1.4142135623730951
250.0,2.0,1.4142135623730951
251.0,1.0,1.0
252.0,4.0,2.0
253.0,2.0,1.4142135623730951
254.0,2.0,1.4142135623730951
255.0,4.0,2.0
256.0,3.0,1.7320508075688772
257.0,1.0,1.0
258.0,1.0,1.0
259.0,2.0,1.4142135623730951
260.0,3.0,1.7320508075688772
261.0,3.0,1.7320508075688772
262.0,4.0,2.0
263.0,2.0,1.4142135623730951
264.0,5.0,2.23606797749979
265.0,3.0,1.7320508075688772
266.0,1.0,1.0
267.0,3.0,1.7320508075688772
268.0,2.0,1.4142135623730951
269.0,3.0,1.7320508075688772
270.0,7.0,2.6457513110645907
271.0,5.0,2.23606797749979
272.0,2.0,1.4142135623730951
273.0,3.0,1.7320508075688772
274.0,5.0,2.23606797749979
275.0,4.0,2.0
276.0,1.0,1.0
277.0,4.0,2.0
278.0,3.0,1.7320508075688772
279.0,5.0,2.23606797749979
280.0,2.0,1.4142135623730951
281.0,2.0,1.4142135623730951
282.0,5.0,2.23606797749979
283.0,1.0,1.0
284.0,2.0,1.4142135623730951
285.0,0.0,0.0
286.0,2.0,1.4142135623730951
287.0,5.0,2.23606797749979
288.0,1.0,1.0
289.0,2.0,1.4142135623730951
290.0,3.0,1.7320508075688772
291.0,2.0,1.4142135623730951
292.0,3.0,1.7320508075688772
293.0,8.0,2.8284271247461903
294.0,3.0,1.7320508075688772
295.0,2.0,1.4142135623730951
296.0,0.0,0.0
297.0,3.0,1.7320508075688772
298.0,2.0,1.4142135623730951
299.0,4.0,2.0
300.0,4.0,2.0
301.0,3.0,1.7320508075688772
302.0,4.0,2.0
303.0,5.0,2.23606797749979
304.0,2.0,1.4142135623730951
305.0,4.0,2.0
306.0,3.0,1.7320508075688772
307.0,1.0,1.0
308.0,3.0,1.7320508075688772
309.0,2.0,1.4142135623730951
310.0,0.0,0.0
311.0,5.0,2.23606797749979
312.0,1.0,1.0
313.0,6.0,2.449489742783178
314.0,3.0,1.7320508075688772
315.0,5.0,2.23606797749979
316.0,2.0,1.4142135623730951
317.0,5.0,2.23606797749979
318.0,7.0,2.6457513110645907
319.0,4.0,2.0
320.0,7.0,2.6457513110645907
321.0,3.0,1.7320508075688772
322.0,2.0,1.4142135623730951
323.0,2.0,1.4142135623730951
324.0,4.0,2.0
325.0,2.0,1.4142135623730951
326.0,5.0,2.23606797749979
327.0,2.0,1.4142135623730951
328.0,2.0,1.4142135623730951
329.0,2.0,1.4142135623730951
330.0,2.0,1.4142135623730951
331.0,3.0,1.7320508075688772
332.0,3.0,1.7320508075688772
333.0,0.0,0.0
334.0,0.0,0.0
335.0,2.0,1.4142135623730951
336.0,3.0,1.7320508075688772
337.0,6.0,2.449489742783178
338.0,1.0,1.0
339.0,1.0,1.0
340.0,3.0,1.7320508075688772
341.0,5.0,2.23606797749979
342.0,3.0,1.7320508075688772
343.0,5.0,2.23606797749979
344.0,1.0,1.0
345.0,3.0,1.7320508075688772
346.0,1.0,1.0
347.0,3.0,1.7320508075688772
348.0,3.0,1.7320508075688772
349.0,1.0,1.0
350.0,5.0,2.23606797749979
351.0,5.0,2.23606797749979
352.0,3.0,1.7320508075688772
353.0,2.0,1.4142135623730951
354.0,3.0,1.7320508075688772
355.0,3.0,1.7320508075688772
356.0,4.0,2.0
357.0,2.0,1.4142135623730951
358.0,2.0,1.4142135623730951
359.0,4.0,2.0
360.0,3.0,1.7320508075688772
361.0,0.0,0.0
362.0,0.0,0.0
363.0,1.0,1.0
364.0,4.0,2.0
365.0,3.0,1.7320508075688772
366.0,6.0,2.449489742783178
367.0,3.0,1.7320508075688772
368.0,0.0,0.0
369.0,1.0,1.0
370.0,1.0,1.0
371.0,1.0,1.0
372.0,4.0,2.0
373.0,1.0,1.0
374.0,3.0,1.7320508075688772
375.0,1.0,1.0
376.0,4.0,2.0
377.0,3.0,1.7320508075688772
378.0,4.0,2.0
379.0,2.0,1.4142135623730951
380.0,2.0,1.4142135623730951
381.0,2.0,1.4142135623730951
382.0,4.0,2.0
383.0,2.0,1.4142135623730951
384.0,0.0,0.0
385.0,3.0,1.7320508075688772
386.0,2.0,1.4142135623730951
387.0,2.0,1.4142135623730951
388.0,2.0,1.4142135623730951
389.0,1.0,1.0
390.0,1.0,1.0
391.0,2.0,1.4142135623730951
392.0,2.0,1.4142135623730951
393.0,0.0,0.0
394.0,2.0,1.4142135623730951
395.0,4.0,2.0
396.0,1.0,1.0
397.0,4.0,2.0
398.0,2.0,1.4142135623730951
399.0,4.0,2.0
400.0,0.0,0.0
401.0,3.0,1.7320508075688772
402.0,4.0,2.0
403.0,1.0,1.0
404.0,2.0,1.4142135623730951
405.0,2.0,1.4142135623730951
406.0,2.0,1.4142135623730951
407.0,5.0,2.23606797749979
408.0,6.0,2.449489742783178
409.0,2.0,1.4142135623730951
410.0,1.0,1.0
411.0,2.0,1.4142135623730951
412.0,2.0,1.4142135623730951
413.0,7.0,2.6457513110645907
414.0,1.0,1.0
415.0,5.0,2.23606797749979
416.0,1.0,1.0
417.0,2.0,1.4142135623730951
418.0,4.0,2.0
419.0,4.0,2.0
420.0,4.0,2.0
421.0,4.0,2.0
422.0,0.0,0.0
423.0,4.0,2.0
424.0,1.0,1.0
425.0,1.0,1.0
426.0,3.0,1.7320508075688772
427.0,2.0,1.4142135623730951
428.0,3.0,1.7320508075688772
429.0,3.0,1.7320508075688772
430.0,2.0,1.4142135623730951
431.0,1.0,1.0
432.0,1.0,1.0
433.0,5.0,2.23606797749979
434.0,5.0,2.23606797749979
435.0,0.0,0.0
436.0,3.0,1.7320508075688772
437.0,5.0,2.23606797749979
438.0,2.0,1.4142135623730951
439.0,1.0,1.0
440.0,3.0,1.7320508075688772
441.0,3.0,1.7320508075688772
442.0,1.0,1.0
443.0,4.0,2.0
444.0,5.0,2.23606797749979
445.0,2.0,1.4142135623730951
446.0,3.0,1.7320508075688772
447.0,3.0,1.7320508075688772
448.0,4.0,2.0
449.0,7.0,2.6457513110645907
450.0,4.0,2.0
451.0,1.0,1.0
452.0,4.0,2.0
453.0,6.0,2.449489742783178
454.0,4.0,2.0
455.0,4.0,2.0
456.0,2.0,1.4142135623730951
457.0,5.0,2.23606797749979
458.0,4.0,2.0
459.0,1.0,1.0
460.0,7.0,2.6457513110645907
461.0,3.0,1.7320508075688772
462.0,2.0,1.4142135623730951
463.0,3.0,1.7320508075688772
464.0,0.0,0.0
465.0,1.0,1.0
466.0,1.0,1.0
467.0,5.0,2.23606797749979
468.0,1.0,1.0
469.0,4.0,2.0
470.0,2.0,1.4142135623730951
471.0,4.0,2.0
472.0,8.0,2.8284271247461903
473.0,2.0,1.4142135623730951
474.0,5.0,2.23606797749979
475.0,3.0,1.7320508075688772
476.0,2.0,1.4142135623730951
477.0,7.0,2.6457513110645907
478.0,5.0,2.23606797749979
479.0,5.0,2.23606797749979
480.0,3.0,1.7320508075688772
481.0,5.0,2.23606797749979
482.0,3.0,1.7320508075688772
483.0,3.0,1.7320508075688772
484.0,2.0,1.4142135623730951
485.0,0.0,0.0
486.0,2.0,1.4142135623730951
487.0,1.0,1.0
488.0,4.0,2.0
489.0,0.0,0.0
490.0,1.0,1.0
491.0,5.0,2.23606797749979
492.0,4.0,2.0
493.0,7.0,2.6457513110645907
494.0,3.0,1.7320508075688772
495.0,4.0,2.0
496.0,6.0,2.449489742783178
497.0,4.0,2.0
498.0,4.0,2.0
499.0,4.0,2.0
500.0,5.0,2.23606797749979
501.0,4.0,2.0
502.0,4.0,2.0
503.0,1.0,1.0
504.0,4.0,2.0
505.0,4.0,2.0
506.0,1.0,1.0
507.0,1.0,1.0
508.0,1.0,1.0
509.0,2.0,1.4142135623730951
510.0,6.0,2.449489742783178
511.0,2.0,1.4142135623730951
512.0,0.0,0.0
513.0,3.0,1.7320508075688772
514.0,5.0,2.23606797749979
515.0,3.0,1.7320508075688772
516.0,1.0,1.0
517.0,2.0,1.4142135623730951
518.0,2.0,1.4142135623730951
519.0,2.0,1.4142135623730951
520.0,2.0,1.4142135623730951
521.0,3.0,1.7320508075688772
522.0,4.0,2.0
523.0,4.0,2.0
524.0,1.0,1.0
525.0,1.0,1.0
526.0,5.0,2.23606797749979
527.0,1.0,1.0
528.0,2.0,1.4142135623730951
529.0,2.0,1.4142135623730951
530.0,4.0,2.0
531.0,2.0,1.4142135623730951
532.0,2.0,1.4142135623730951
533.0,5.0,2.23606797749979
534.0,0.0,0.0
535.0,5.0,2.23606797749979
536.0,4.0,2.0
537.0,4.0,2.0
538.0,2.0,1.4142135623730951
539.0,3.0,1.7320508075688772
540.0,4.0,2.0
541.0,5.0,2.23606797749979
542.0,3.0,1.7320508075688772
543.0,2.0,1.4142135623730951
544.0,0.0,0.0
545.0,5.0,2.23606797749979
546.0,5.0,2.23606797749979
547.0,0.0,0.0
548.0,1.0,1.0
549.0,0.0,0.0
550.0,5.0,2.23606797749979
551.0,4.0,2.0
552.0,2.0,1.4142135623730951
553.0,4.0,2.0
554.0,5.0,2.23606797749979
555.0,4.0,2.0
556.0,3.0,1.7320508075688772
557.0,4.0,2.0
558.0,2.0,1.4142135623730951
559.0,6.0,2.449489742783178
560.0,2.0,1.4142135623730951
561.0,5.0,2.23606797749979
562.0,3.0,1.7320508075688772
563.0,4.0,2.0
564.0,3.0,1.7320508075688772
565.0,3.0,1.7320508075688772
566.0,3.0,1.7320508075688772
567.0,2.0,1.4142135623730951
568.0,1.0,1.0
569.0,0.0,0.0
570.0,4.0,2.0
571.0,3.0,1.7320508075688772
572.0,2.0,1.4142135623730951
573.0,2.0,1.4142135623730951
574.0,2.0,1.4142135623730951
575.0,4.0,2.0
576.0,2.0,1.4142135623730951
577.0,3.0,1.7320508075688772
578.0,0.0,0.0
579.0,2.0,1.4142135623730951
580.0,2.0,1.4142135623730951
581.0,3.0,1.7320508075688772
582.0,2.0,1.4142135623730951
583.0,4.0,2.0
584.0,4.0,2.0
585.0,1.0,1.0
586.0,5.0,2.23606797749979
587.0,3.0,1.7320508075688772
588.0,6.0,2.449489742783178
589.0,1.0,1.0
590.0,3.0,1.7320508075688772
591.0,4.0,2.0
592.0,1.0,1.0
593.0,3.0,1.7320508075688772
594.0,1.0,1.0
595.0,1.0,1.0
596.0,2.0,1.4142135623730951
597.0,4.0,2.0
598.0,2.0,1.4142135623730951
599.0,1.0,1.0
600.0,4.0,2.0
601.0,4.0,2.0
602.0,3.0,1.7320508075688772
603.0,3.0,1.7320508075688772
604.0,1.0,1.0
605.0,4.0,2.0
606.0,4.0,2.0
607.0,3.0,1.7320508075688772
608.0,4.0,2.0
609.0,4.0,2.0
610.0,1.0,1.0
611.0,0.0,0.0
612.0,2.0,1.4142135623730951
613.0,4.0,2.0
614.0,2.0,1.4142135623730951
615.0,3.0,1.7320508075688772
616.0,2.0,1.4142135623730951
617.0,2.0,1.4142135623730951
618.0,3.0,1.7320508075688772
619.0,2.0,1.4142135623730951
620.0,0.0,0.0
621.0,6.0,2.449489742783178
622.0,1.0,1.0
623.0,0.0,0.0
624.0,1.0,1.0
625.0,3.0,1.7320508075688772
626.0,3.0,1.7320508075688772
627.0,1.0,1.0
628.0,3.0,1.7320508075688772
629.0,4.0,2.0
630.0,1.0,1.0
631.0,2.0,1.4142135623730951
632.0,2.0,1.4142135623730951
633.0,3.0,1.7320508075688772
634.0,1.0,1.0
635.0,1.0,1.0
636.0,2.0,1.4142135623730951
637.0,4.0,2.0
638.0,1.0,1.0
639.0,3.0,1.7320508075688772
640.0,4.0,2.0
641.0,3.0,1.7320508075688772
642.0,4.0,2.0
643.0,2.0,1.4142135623730951
644.0,3.0,1.7320508075688772
645.0,12.0,3.4641016151377544
646.0,3.0,1.7320508075688772
647.0,5.0,2.23606797749979
648.0,5.0,2.23606797749979
649.0,3.0,1.7320508075688772
650.0,2.0,1.4142135623730951
651.0,7.0,2.6457513110645907
652.0,4.0,2.0
653.0,0.0,0.0
654.0,1.0,1.0
655.0,2.0,1.4142135623730951
656.0,2.0,1.4142135623730951
657.0,0.0,0.0
658.0,3.0,1.7320508075688772
659.0,3.0,1.7320508075688772
660.0,3.0,1.7320508075688772
661.0,3.0,1.7320508075688772
662.0,3.0,1.7320508075688772
663.0,2.0,1.4142135623730951
664.0,0.0,0.0
665.0,3.0,1.7320508075688772
666.0,3.0,1.7320508075688772
667.0,1.0,1.0
668.0,1.0,1.0
669.0,3.0,1.7320508075688772
670.0,2.0,1.4142135623730951
671.0,2.0,1.4142135623730951
672.0,0.0,0.0
673.0,3.0,1.7320508075688772
674.0,6.0,2.449489742783178
675.0,2.0,1.4142135623730951
676.0,2.0,1.4142135623730951
677.0,1.0,1.0
678.0,3.0,1.7320508075688772
679.0,0.0,0.0
680.0,1.0,1.0
681.0,0.0,0.0
682.0,0.0,0.0
683.0,0.0,0.0
684.0,0.0,0.0
685.0,1.0,1.0
686.0,4.0,2.0
687.0,6.0,2.449489742783178
688.0,2.0,1.4142135623730951
689.0,5.0,2.23606797749979
690.0,3.0,1.7320508075688772
691.0,4.0,2.0
692.0,3.0,1.7320508075688772
693.0,5.0,2.23606797749979
694.0,4.0,2.0
695.0,1.0,1.0
696.0,5.0,2.23606797749979
697.0,0.0,0.0
698.0,4.0,2.0
699.0,2.0,1.4142135623730951
700.0,4.0,2.0
701.0,4.0,2.0
702.0,3.0,1.7320508075688772
703.0,1.0,1.0
704.0,2.0,1.4142135623730951
705.0,5.0,2.23606797749979
706.0,1.0,1.0
707.0,1.0,1.0
708.0,3.0,1.7320508075688772
709.0,3.0,1.7320508075688772
710.0,2.0,1.4142135623730951
711.0,3.0,1.7320508075688772
712.0,1.0,1.0
713.0,0.0,0.0
714.0,5.0,2.23606797749979
715.0,5.0,2.23606797749979
716.0,2.0,1.4142135623730951
717.0,0.0,0.0
718.0,2.0,1.4142135623730951
719.0,4.0,2.0
720.0,1.0,1.0
721.0,7.0,2.6457513110645907
722.0,5.0,2.23606797749979
723.0,2.0,1.4142135623730951
724.0,6.0,2.449489742783178
725.0,2.0,1.4142135623730951
726.0,7.0,2.6457513110645907
727.0,4.0,2.0
728.0,2.0,1.4142135623730951
729.0,6.0,2.449489742783178
730.0,3.0,1.7320508075688772
731.0,1.0,1.0
732.0,2.0,1.4142135623730951
733.0,2.0,1.4142135623730951
734.0,3.0,1.7320508075688772
735.0,4.0,2.0
736.0,2.0,1.4142135623730951
737.0,4.0,2.0
738.0,2.0,1.4142135623730951
739.0,4.0,2.0
740.0,3.0,1.7320508075688772
741.0,4.0,2.0
742.0,2.0,1.4142135623730951
743.0,3.0,1.7320508075688772
744.0,1.0,1.0
745.0,6.0,2.449489742783178
746.0,4.0,2.0
747.0,3.0,1.7320508075688772
748.0,1.0,1.0
749.0,1.0,1.0
750.0,4.0,2.0
751.0,0.0,0.0
752.0,2.0,1.4142135623730951
753.0,1.0,1.0
754.0,1.0,1.0
755.0,2.0,1.4142135623730951
756.0,8.0,2.8284271247461903
757.0,2.0,1.4142135623730951
758.0,5.0,2.23606797749979
759.0,3.0,1.7320508075688772
760.0,2.0,1.4142135623730951
761.0,2.0,1.4142135623730951
762.0,5.0,2.23606797749979
763.0,5.0,2.23606797749979
764.0,4.0,2.0
765.0,3.0,1.7320508075688772
766.0,3.0,1.7320508075688772
767.0,2.0,1.4142135623730951
768.0,2.0,1.4142135623730951
769.0,4.0,2.0
770.0,8.0,2.8284271247461903
771.0,3.0,1.7320508075688772
772.0,2.0,1.4142135623730951
773.0,1.0,1.0
774.0,3.0,1.7320508075688772
775.0,3.0,1.7320508075688772
776.0,6.0,2.449489742783178
777.0,1.0,1.0
778.0,3.0,1.7320508075688772
779.0,4.0,2.0
780.0,2.0,1.4142135623730951
781.0,3.0,1.7320508075688772
782.0,0.0,0.0
783.0,4.0,2.0
784.0,4.0,2.0
785.0,4.0,2.0
786.0,3.0,1.7320508075688772
787.0,3.0,1.7320508075688772
788.0,6.0,2.449489742783178
789.0,3.0,1.7320508075688772
790.0,1.0,1.0
791.0,5.0,2.23606797749979
792.0,1.0,1.0
793.0,4.0,2.0
794.0,4.0,2.0
795.0,3.0,1.7320508075688772
796.0,3.0,1.7320508075688772
797.0,5.0,2.23606797749979
798.0,1.0,1.0
799.0,0.0,0.0
800.0,1.0,1.0
801.0,2.0,1.4142135623730951
802.0,3.0,1.7320508075688772
803.0,2.0,1.4142135623730951
804.0,3.0,1.7320508075688772
805.0,3.0,1.7320508075688772
806.0,1.0,1.0
807.0,0.0,0.0
808.0,6.0,2.449489742783178
809.0,4.0,2.0
810.0,3.0,1.7320508075688772
811.0,4.0,2.0
812.0,4.0,2.0
813.0,7.0,2.6457513110645907
814.0,3.0,1.7320508075688772
815.0,0.0,0.0
816.0,3.0,1.7320508075688772
817.0,5.0,2.23606797749979
818.0,3.0,1.7320508075688772
819.0,0.0,0.0
820.0,3.0,1.7320508075688772
821.0,8.0,2.8284271247461903
822.0,3.0,1.7320508075688772
823.0,0.0,0.0
824.0,0.0,0.0
825.0,3.0,1.7320508075688772
826.0,2.0,1.4142135623730951
827.0,2.0,1.4142135623730951
828.0,2.0,1.4142135623730951
829.0,1.0,1.0
830.0,2.0,1.4142135623730951
831.0,4.0,2.0
832.0,3.0,1.7320508075688772
833.0,2.0,1.4142135623730951
834.0,2.0,1.4142135623730951
835.0,3.0,1.7320508075688772
836.0,3.0,1.7320508075688772
837.0,2.0,1.4142135623730951
838.0,3.0,1.7320508075688772
839.0,2.0,1.4142135623730951
840.0,5.0,2.23606797749979
841.0,7.0,2.6457513110645907
842.0,1.0,1.0
843.0,3.0,1.7320508075688772
844.0,4.0,2.0
845.0,8.0,2.8284271247461903
846.0,5.0,2.23606797749979
847.0,3.0,1.7320508075688772
848.0,0.0,0.0
849.0,5.0,2.23606797749979
850.0,1.0,1.0
851.0,3.0,1.7320508075688772
852.0,1.0,1.0
853.0,4.0,2.0
854.0,2.0,1.4142135623730951
855.0,1.0,1.0
856.0,0.0,0.0
857.0,1.0,1.0
858.0,1.0,1.0
859.0,3.0,1.7320508075688772
860.0,2.0,1.4142135623730951
861.0,3.0,1.7320508075688772
862.0,3.0,1.7320508075688772
863.0,4.0,2.0
864.0,3.0,1.7320508075688772
865.0,1.0,1.0
866.0,1.0,1.0
867.0,1.0,1.0
868.0,1.0,1.0
869.0,8.0,2.8284271247461903
870.0,5.0,2.23606797749979
871.0,1.0,1.0
872.0,4.0,2.0
873.0,4.0,2.0
874.0,2.0,1.4142135623730951
875.0,3.0,1.7320508075688772
876.0,6.0,2.449489742783178
877.0,4.0,2.0
878.0,2.0,1.4142135623730951
879.0,2.0,1.4142135623730951
880.0,3.0,1.7320508075688772
881.0,1.0,1.0
882.0,6.0,2.449489742783178
883.0,3.0,1.7320508075688772
884.0,0.0,0.0
885.0,3.0,1.7320508075688772
886.0,5.0,2.23606797749979
887.0,1.0,1.0
888.0,4.0,2.0
889.0,1.0,1.0
890.0,7.0,2.6457513110645907
891.0,5.0,2.23606797749979
892.0,4.0,2.0
893.0,1.0,1.0
894.0,2.0,1.4142135623730951
895.0,2.0,1.4142135623730951
896.0,3.0,1.7320508075688772
897.0,1.0,1.0
898.0,0.0,0.0
899.0,5.0,2.23606797749979
900.0,5.0,2.23606797749979
901.0,3.0,1.7320508075688772
902.0,2.0,1.4142135623730951
903.0,1.0,1.0
904.0,2.0,1.4142135623730951
905.0,4.0,2.0
906.0,1.0,1.0
907.0,3.0,1.7320508075688772
908.0,4.0,2.0
909.0,1.0,1.0
910.0,1.0,1.0
911.0,3.0,1.7320508075688772
912.0,2.0,1.4142135623730951
913.0,0.0,0.0
914.0,2.0,1.4142135623730951
915.0,1.0,1.0
916.0,6.0,2.449489742783178
917.0,1.0,1.0
918.0,3.0,1.7320508075688772
919.0,1.0,1.0
920.0,4.0,2.0
921.0,3.0,1.7320508075688772
922.0,3.0,1.7320508075688772
923.0,3.0,1.7320508075688772
924.0,0.0,0.0
925.0,3.0,1.7320508075688772
926.0,3.0,1.7320508075688772
927.0,0.0,0.0
928.0,0.0,0.0
929.0,4.0,2.0
930.0,4.0,2.0
931.0,0.0,0.0
932.0,0.0,0.0
933.0,5.0,2.23606797749979
934.0,3.0,1.7320508075688772
935.0,2.0,1.4142135623730951
936.0,4.0,2.0
937.0,4.0,2.0
938.0,1.0,1.0
939.0,3.0,1.7320508075688772
940.0,3.0,1.7320508075688772
941.0,4.0,2.0
942.0,7.0,2.6457513110645907
943.0,1.0,1.0
944.0,2.0,1.4142135623730951
945.0,4.0,2.0
946.0,8.0,2.8284271247461903
947.0,0.0,0.0
948.0,2.0,1.4142135623730951
949.0,5.0,2.23606797749979
950.0,2.0,1.4142135623730951
951.0,3.0,1.7320508075688772
952.0,4.0,2.0
953.0,3.0,1.7320508075688772
954.0,7.0,2.6457513110645907
955.0,3.0,1.7320508075688772
956.0,2.0,1.4142135623730951
957.0,3.0,1.7320508075688772
958.0,2.0,1.4142135623730951
959.0,3.0,1.7320508075688772
960.0,3.0,1.7320508075688772
961.0,7.0,2.6457513110645907
962.0,1.0,1.0
963.0,7.0,2.6457513110645907
964.0,1.0,1.0
965.0,1.0,1.0
966.0,2.0,1.4142135623730951
967.0,2.0,1.4142135623730951
968.0,2.0,1.4142135623730951
969.0,1.0,1.0
970.0,1.0,1.0
971.0,5.0,2.23606797749979
972.0,3.0,1.7320508075688772
973.0,1.0,1.0
974.0,3.0,1.7320508075688772
975.0,2.0,1.4142135623730951
976.0,1.0,1.0
977.0,3.0,1.7320508075688772
978.0,2.0,1.4142135623730951
979.0,1.0,1.0
980.0,2.0,1.4142135623730951
981.0,4.0,2.0
982.0,3.0,1.7320508075688772
983.0,1.0,1.0
984.0,3.0,1.7320508075688772
985.0,2.0,1.4142135623730951
986.0,1.0,1.0
987.0,1.0,1.0
988.0,1.0,1.0
989.0,5.0,2.23606797749979
990.0,2.0,1.4142135623730951
991.0,4.0,2.0
992.0,0.0,0.0
993.0,2.0,1.4142135623730951
994.0,0.0,0.0
995.0,2.0,1.4142135623730951
996.0,2.0,1.4142135623730951
997.0,5.0,2.23606797749979
998.0,7.0,2.6457513110645907
999.0,2.0,1.4142135623730951
1000.0,1.0,1.0
1001.0,2.0,1.4142135623730951
1002.0,2.0,1.4142135623730951
1003.0,3.0,1.7320508075688772
1004.0,6.0,2.449489742783178
1005.0,5.0,2.23606797749979
1006.0,5.0,2.23606797749979
1007.0,1.0,1.0
1008.0,3.0,1.7320508075688772
1009.0,5.0,2.23606797749979
1010.0,2.0,1.4142135623730951
1011.0,1.0,1.0
1012.0,3.0,1.7320508075688772
1013.0,1.0,1.0
1014.0,1.0,1.0
1015.0,1.0,1.0
1016.0,3.0,1.7320508075688772
1017.0,3.0,1.7320508075688772
1018.0,3.0,1.7320508075688772
1019.0,3.0,1.7320508075688772
1020.0,3.0,1.7320508075688772
1021.0,2.0,1.4142135623730951
1022.0,5.0,2.23606797749979
1023.0,2.0,1.4142135623730951
1024.0,4.0,2.0
1025.0,3.0,1.7320508075688772
1026.0,3.0,1.7320508075688772
1027.0,1.0,1.0
1028.0,1.0,1.0
1029.0,2.0,1.4142135623730951
1030.0,3.0,1.7320508075688772
1031.0,0.0,0.0
1032.0,5.0,2.23606797749979
1033.0,3.0,1.7320508075688772
1034.0,2.0,1.4142135623730951
1035.0,1.0,1.0
1036.0,1.0,1.0
1037.0,1.0,1.0
1038.0,5.0,2.23606797749979
1039.0,0.0,0.0
1040.0,2.0,1.4142135623730951
1041.0,2.0,1.4142135623730951
1042.0,3.0,1.7320508075688772
1043.0,3.0,1.7320508075688772
1044.0,3.0,1.7320508075688772
1045.0,2.0,1.4142135623730951
1046.0,3.0,1.7320508075688772
1047.0,3.0,1.7320508075688772
1048.0,3.0,1.7320508075688772
1049.0,2.0,1.4142135623730951
1050.0,1.0,1.0
1051.0,3.0,1.7320508075688772
1052.0,4.0,2.0
1053.0,3.0,1.7320508075688772
1054.0,1.0,1.0
1055.0,2.0,1.4142135623730951
1056.0,1.0,1.0
1057.0,0.0,0.0
1058.0,2.0,1.4142135623730951
1059.0,4.0,2.0
1060.0,2.0,1.4142135623730951
1061.0,0.0,0.0
1062.0,5.0,2.23606797749979
1063.0,3.0,1.7320508075688772
1064.0,5.0,2.23606797749979
1065.0,2.0,1.4142135623730951
1066.0,3.0,1.7320508075688772
1067.0,1.0,1.0
1068.0,3.0,1.7320508075688772
1069.0,3.0,1.7320508075688772
1070.0,0.0,0.0
1071.0,5.0,2.23606797749979
1072.0,4.0,2.0
1073.0,3.0,1.7320508075688772
1074.0,8.0,2.8284271247461903
1075.0,2.0,1.4142135623730951
1076.0,3.0,1.7320508075688772
1077.0,3.0,1.7320508075688772
1078.0,3.0,1.7320508075688772
1079.0,2.0,1.4142135623730951
1080.0,4.0,2.0
1081.0,3.0,1.7320508075688772
1082.0,6.0,2.449489742783178
1083.0,2.0,1.4142135623730951
1084.0,2.0,1.4142135623730951
1085.0,2.0,1.4142135623730951
1086.0,1.0,1.0
1087.0,3.0,1.7320508075688772
1088.0,1.0,1.0
1089.0,4.0,2.0
1090.0,0.0,0.0
1091.0,2.0,1.4142135623730951
1092.0,1.0,1.0
1093.0,7.0,2.6457513110645907
1094.0,4.0,2.0
1095.0,8.0,2.8284271247461903
1096.0,2.0,1.4142135623730951
1097.0,1.0,1.0
1098.0,2.0,1.4142135623730951
1099.0,4.0,2.0
1100.0,1.0,1.0
1101.0,1.0,1.0
1102.0,5.0,2.23606797749979
1103.0,2.0,1.4142135623730951
1104.0,3.0,1.7320508075688772
1105.0,2.0,1.4142135623730951
1106.0,3.0,1.7320508075688772
1107.0,4.0,2.0
1108.0,3.0,1.7320508075688772
1109.0,3.0,1.7320508075688772
1110.0,0.0,0.0
1111.0,4.0,2.0
1112.0,4.0,2.0
1113.0,3.0,1.7320508075688772
1114.0,1.0,1.0
1115.0,5.0,2.23606797749979
1116.0,1.0,1.0
1117.0,2.0,1.4142135623730951
1118.0,2.0,1.4142135623730951
1119.0,1.0,1.0
1120.0,3.0,1.7320508075688772
1121.0,3.0,1.7320508075688772
1122.0,5.0,2.23606797749979
1123.0,1.0,1.0
1124.0,1.0,1.0
1125.0,2.0,1.4142135623730951
1126.0,2.0,1.4142135623730951
1127.0,1.0,1.0
1128.0,3.0,1.7320508075688772
1129.0,2.0,1.4142135623730951
1130.0,3.0,1.7320508075688772
1131.0,3.0,1.7320508075688772
1132.0,4.0,2.0
1133.0,3.0,1.7320508075688772
1134.0,4.0,2.0
1135.0,1.0,1.0
1136.0,2.0,1.4142135623730951
1137.0,3.0,1.7320508075688772
1138.0,3.0,1.7320508075688772
1139.0,2.0,1.4142135623730951
1140.0,3.0,1.7320508075688772
1141.0,5.0,2.23606797749979
1142.0,2.0,1.4142135623730951
1143.0,2.0,1.4142135623730951
1144.0,5.0,2.23606797749979
1145.0,3.0,1.7320508075688772
1146.0,2.0,1.4142135623730951
1147.0,3.0,1.7320508075688772
1148.0,3.0,1.7320508075688772
1149.0,2.0,1.4142135623730951
1150.0,5.0,2.23606797749979
1151.0,4.0,2.0
1152.0,4.0,2.0
1153.0,4.0,2.0
1154.0,2.0,1.4142135623730951
1155.0,4.0,2.0
1156.0,5.0,2.23606797749979
1157.0,1.0,1.0
1158.0,1.0,1.0
1159.0,2.0,1.4142135623730951
1160.0,2.0,1.4142135623730951
1161.0,0.0,0.0
1162.0,4.0,2.0
1163.0,2.0,1.4142135623730951
1164.0,1.0,1.0
1165.0,3.0,1.7320508075688772
1166.0,1.0,1.0
1167.0,6.0,2.449489742783178
1168.0,0.0,0.0
1169.0,2.0,1.4142135623730951
1170.0,2.0,1.4142135623730951
1171.0,2.0,1.4142135623730951
1172.0,6.0,2.449489742783178
1173.0,3.0,1.7320508075688772
1174.0,4.0,2.0
1175.0,2.0,1.4142135623730951
1176.0,4.0,2.0
1177.0,2.0,1.4142135623730951
1178.0,2.0,1.4142135623730951
1179.0,5.0,2.23606797749979
1180.0,1.0,1.0
1181.0,4.0,2.0
1182.0,4.0,2.0
1183.0,2.0,1.4142135623730951
1184.0,2.0,1.4142135623730951
1185.0,5.0,2.23606797749979
1186.0,3.0,1.7320508075688772
1187.0,2.0,1.4142135623730951
1188.0,2.0,1.4142135623730951
1189.0,5.0,2.23606797749979
1190.0,9.0,3.0
1191.0,1.0,1.0
1192.0,3.0,1.7320508075688772
1193.0,5.0,2.23606797749979
1194.0,3.0,1.7320508075688772
1195.0,6.0,2.449489742783178
1196.0,3.0,1.7320508075688772
1197.0,5.0,2.23606797749979
1198.0,3.0,1.7320508075688772
1199.0,1.0,1.0
1200.0,3.0,1.7320508075688772
1201.0,2.0,1.4142135623730951
1202.0,2.0,1.4142135623730951
1203.0,2.0,1.4142135623730951
1204.0,6.0,2.449489742783178
1205.0,3.0,1.7320508075688772
1206.0,3.0,1.7320508075688772
1207.0,4.0,2.0
1208.0,5.0,2.23606797749979
1209.0,5.0,2.23606797749979
1210.0,3.0,1.7320508075688772
1211.0,3.0,1.7320508075688772
1212.0,4.0,2.0
1213.0,6.0,2.449489742783178
1214.0,8.0,2.8284271247461903
1215.0,2.0,1.4142135623730951
1216.0,0.0,0.0
1217.0,1.0,1.0
1218.0,4.0,2.0
1219.0,2.0,1.4142135623730951
1220.0,2.0,1.4142135623730951
1221.0,6.0,2.449489742783178
1222.0,3.0,1.7320508075688772
1223.0,7.0,2.6457513110645907
1224.0,2.0,1.4142135623730951
1225.0,2.0,1.4142135623730951
1226.0,3.0,1.7320508075688772
1227.0,4.0,2.0
1228.0,1.0,1.0
1229.0,3.0,1.7320508075688772
1230.0,3.0,1.7320508075688772
1231.0,1.0,1.0
1232.0,3.0,1.7320508075688772
1233.0,2.0,1.4142135623730951
1234.0,6.0,2.449489742783178
1235.0,5.0,2.23606797749979
1236.0,3.0,1.7320508075688772
1237.0,7.0,2.6457513110645907
1238.0,2.0,1.4142135623730951
1239.0,3.0,1.7320508075688772
1240.0,6.0,2.449489742783178
1241.0,7.0,2.6457513110645907
1242.0,2.0,1.4142135623730951
1243.0,1.0,1.0
1244.0,2.0,1.4142135623730951
1245.0,1.0,1.0
1246.0,1.0,1.0
1247.0,7.0,2.6457513110645907
1248.0,4.0,2.0
1249.0,3.0,1.7320508075688772
1250.0,3.0,1.7320508075688772
1251.0,5.0,2.23606797749979
1252.0,3.0,1.7320508075688772
1253.0,3.0,1.7320508075688772
1254.0,2.0,1.4142135623730951
1255.0,4.0,2.0
1256.0,5.0,2.23606797749979
1257.0,3.0,1.7320508075688772
1258.0,0.0,0.0
1259.0,0.0,0.0
1260.0,3.0,1.7320508075688772
1261.0,5.0,2.23606797749979
1262.0,3.0,1.7320508075688772
1263.0,1.0,1.0
1264.0,3.0,1.7320508075688772
1265.0,3.0,1.7320508075688772
1266.0,0.0,0.0
1267.0,1.0,1.0
1268.0,5.0,2.23606797749979
1269.0,1.0,1.0
1270.0,1.0,1.0
1271.0,5.0,2.23606797749979
1272.0,1.0,1.0
1273.0,1.0,1.0
1274.0,4.0,2.0
1275.0,0.0,0.0
1276.0,3.0,1.7320508075688772
1277.0,2.0,1.4142135623730951
1278.0,4.0,2.0
1279.0,2.0,1.4142135623730951
1280.0,1.0,1.0
1281.0,2.0,1.4142135623730951
1282.0,2.0,1.4142135623730951
1283.0,1.0,1.0
1284.0,2.0,1.4142135623730951
1285.0,1.0,1.0
1286.0,6.0,2.449489742783178
1287.0,2.0,1.4142135623730951
1288.0,3.0,1.7320508075688772
1289.0,1.0,1.0
1290.0,1.0,1.0
1291.0,2.0,1.4142135623730951
1292.0,3.0,1.7320508075688772
1293.0,2.0,1.4142135623730951
1294.0,2.0,1.4142135623730951
1295.0,1.0,1.0
1296.0,5.0,2.23606797749979
1297.0,3.0,1.7320508075688772
1298.0,3.0,1.7320508075688772
1299.0,2.0,1.4142135623730951
1300.0,3.0,1.7320508075688772
1301.0,4.0,2.0
1302.0,2.0,1.4142135623730951
1303.0,4.0,2.0
1304.0,3.0,1.7320508075688772
1305.0,4.0,2.0
1306.0,2.0,1.4142135623730951
1307.0,3.0,1.7320508075688772
1308.0,2.0,1.4142135623730951
1309.0,7.0,2.6457513110645907
1310.0,3.0,1.7320508075688772
1311.0,4.0,2.0
1312.0,3.0,1.7320508075688772
1313.0,4.0,2.0
1314.0,1.0,1.0
1315.0,4.0,2.0
1316.0,5.0,2.23606797749979
1317.0,2.0,1.4142135623730951
1318.0,0.0,0.0
1319.0,4.0,2.0
1320.0,4.0,2.0
1321.0,2.0,1.4142135623730951
1322.0,4.0,2.0
1323.0,2.0,1.4142135623730951
1324.0,2.0,1.4142135623730951
1325.0,4.0,2.0
1326.0,2.0,1.4142135623730951
1327.0,3.0,1.7320508075688772
1328.0,3.0,1.7320508075688772
1329.0,0.0,0.0
1330.0,2.0,1.4142135623730951
1331.0,4.0,2.0
1332.0,1.0,1.0
1333.0,3.0,1.7320508075688772
1334.0,3.0,1.7320508075688772
1335.0,2.0,1.4142135623730951
1336.0,3.0,1.7320508075688772
1337.0,5.0,2.23606797749979
1338.0,4.0,2.0
1339.0,3.0,1.7320508075688772
1340.0,2.0,1.4142135623730951
1341.0,8.0,2.8284271247461903
1342.0,3.0,1.7320508075688772
1343.0,2.0,1.4142135623730951
1344.0,1.0,1.0
1345.0,1.0,1.0
1346.0,1.0,1.0
1347.0,2.0,1.4142135623730951
1348.0,2.0,1.4142135623730951
1349.0,3.0,1.7320508075688772
1350.0,5.0,2.23606797749979
1351.0,2.0,1.4142135623730951
1352.0,5.0,2.23606797749979
1353.0,6.0,2.449489742783178
1354.0,6.0,2.449489742783178
1355.0,2.0,1.4142135623730951
1356.0,6.0,2.449489742783178
1357.0,5.0,2.23606797749979
1358.0,2.0,1.4142135623730951
1359.0,3.0,1.7320508075688772
1360.0,1.0,1.0
1361.0,4.0,2.0
1362.0,0.0,0.0
1363.0,4.0,2.0
1364.0,5.0,2.23606797749979
1365.0,2.0,1.4142135623730951
1366.0,2.0,1.4142135623730951
1367.0,3.0,1.7320508075688772
1368.0,1.0,1.0
1369.0,2.0,1.4142135623730951
1370.0,4.0,2.0
1371.0,4.0,2.0
1372.0,1.0,1.0
1373.0,2.0,1.4142135623730951
1374.0,3.0,1.7320508075688772
1375.0,1.0,1.0
1376.0,1.0,1.0
1377.0,2.0,1.4142135623730951
1378.0,5.0,2.23606797749979
1379.0,1.0,1.0
1380.0,2.0,1.4142135623730951
1381.0,2.0,1.4142135623730951
1382.0,5.0,2.23606797749979
1383.0,3.0,1.7320508075688772
1384.0,1.0,1.0
1385.0,3.0,1.7320508075688772
1386.0,5.0,2.23606797749979
1387.0,5.0,2.23606797749979
1388.0,1.0,1.0
1389.0,3.0,1.7320508075688772
1390.0,6.0,2.449489742783178
1391.0,6.0,2.449489742783178
1392.0,3.0,1.7320508075688772
1393.0,0.0,0.0
1394.0,3.0,1.7320508075688772
1395.0,3.0,1.7320508075688772
1396.0,5.0,2.23606797749979
1397.0,0.0,0.0
1398.0,4.0,2.0
1399.0,0.0,0.0
1400.0,6.0,2.449489742783178
1401.0,2.0,1.4142135623730951
1402.0,3.0,1.7320508075688772
1403.0,1.0,1.0
1404.0,2.0,1.4142135623730951
1405.0,2.0,1.4142135623730951
1406.0,2.0,1.4142135623730951
1407.0,4.0,2.0
1408.0,2.0,1.4142135623730951
1409.0,1.0,1.0
1410.0,7.0,2.6457513110645907
1411.0,3.0,1.7320508075688772
1412.0,5.0,2.23606797749979
1413.0,2.0,1.4142135623730951
1414.0,4.0,2.0
1415.0,6.0,2.449489742783178
1416.0,4.0,2.0
1417.0,1.0,1.0
1418.0,2.0,1.4142135623730951
1419.0,2.0,1.4142135623730951
1420.0,3.0,1.7320508075688772
1421.0,1.0,1.0
1422.0,3.0,1.7320508075688772
1423.0,0.0,0.0
1424.0,4.0,2.0
1425.0,3.0,1.7320508075688772
1426.0,3.0,1.7320508075688772
1427.0,3.0,1.7320508075688772
1428.0,5.0,2.23606797749979
1429.0,6.0,2.449489742783178
1430.0,4.0,2.0
1431.0,2.0,1.4142135623730951
1432.0,4.0,2.0
1433.0,3.0,1.7320508075688772
1434.0,5.0,2.23606797749979
1435.0,2.0,1.4142135623730951
1436.0,3.0,1.7320508075688772
1437.0,7.0,2.6457513110645907
1438.0,2.0,1.4142135623730951
1439.0,3.0,1.7320508075688772
1440.0,7.0,2.6457513110645907
1441.0,3.0,1.7320508075688772
1442.0,4.0,2.0
1443.0,2.0,1.4142135623730951
1444.0,6.0,2.449489742783178
1445.0,2.0,1.4142135623730951
1446.0,5.0,2.23606797749979
1447.0,2.0,1.4142135623730951
1448.0,2.0,1.4142135623730951
1449.0,6.0,2.449489742783178
1450.0,2.0,1.4142135623730951
1451.0,1.0,1.0
1452.0,3.0,1.7320508075688772
1453.0,4.0,2.0
1454.0,1.0,1.0
1455.0,5.0,2.23606797749979
1456.0,0.0,0.0
1457.0,0.0,0.0
1458.0,4.0,2.0
1459.0,6.0,2.449489742783178
1460.0,4.0,2.0
1461.0,2.0,1.4142135623730951
1462.0,4.0,2.0
1463.0,2.0,1.4142135623730951
1464.0,1.0,1.0
1465.0,4.0,2.0
1466.0,5.0,2.23606797749979
1467.0,5.0,2.23606797749979
1468.0,3.0,1.7320508075688772
1469.0,7.0,2.6457513110645907
1470.0,6.0,2.449489742783178
1471.0,1.0,1.0
1472.0,4.0,2.0
1473.0,5.0,2.23606797749979
1474.0,2.0,1.4142135623730951
1475.0,3.0,1.7320508075688772
1476.0,1.0,1.0
1477.0,2.0,1.4142135623730951
1478.0,6.0,2.449489742783178
1479.0,3.0,1.7320508075688772
1480.0,2.0,1.4142135623730951
1481.0,3.0,1.7320508075688772
1482.0,3.0,1.7320508075688772
1483.0,2.0,1.4142135623730951
1484.0,4.0,2.0
1485.0,5.0,2.23606797749979
1486.0,3.0,1.7320508075688772
1487.0,3.0,1.7320508075688772
1488.0,6.0,2.449489742783178
1489.0,3.0,1.7320508075688772
1490.0,6.0,2.449489742783178
1491.0,7.0,2.6457513110645907
1492.0,6.0,2.449489742783178
1493.0,5.0,2.23606797749979
1494.0,5.0,2.23606797749979
1495.0,4.0,2.0
1496.0,5.0,2.23606797749979
1497.0,4.0,2.0
1498.0,3.0,1.7320508075688772
1499.0,3.0,1.7320508075688772
1500.0,4.0,2.0
1501.0,12.0,3.4641016151377544
1502.0,5.0,2.23606797749979
1503.0,6.0,2.449489742783178
1504.0,5.0,2.23606797749979
1505.0,7.0,2.6457513110645907
1506.0,3.0,1.7320508075688772
1507.0,3.0,1.7320508075688772
1508.0,4.0,2.0
1509.0,8.0,2.8284271247461903
1510.0,4.0,2.0
1511.0,6.0,2.449489742783178
1512.0,5.0,2.23606797749979
1513.0,7.0,2.6457513110645907
1514.0,6.0,2.449489742783178
1515.0,6.0,2.449489742783178
1516.0,2.0,1.4142135623730951
1517.0,5.0,2.23606797749979
1518.0,5.0,2.23606797749979
1519.0,9.0,3.0
1520.0,7.0,2.6457513110645907
1521.0,12.0,3.4641016151377544
1522.0,12.0,3.4641016151377544
1523.0,5.0,2.23606797749979
1524.0,3.0,1.7320508075688772
1525.0,10.0,3.1622776601683795
1526.0,12.0,3.4641016151377544
1527.0,9.0,3.0
1528.0,4.0,2.0
1529.0,8.0,2.8284271247461903
1530.0,11.0,3.3166247903554
1531.0,4.0,2.0
1532.0,5.0,2.23606797749979
1533.0,6.0,2.449489742783178
1534.0,7.0,2.6457513110645907
1535.0,13.0,3.605551275463989
1536.0,16.0,4.0
1537.0,5.0,2.23606797749979
1538.0,6.0,2.449489742783178
1539.0,7.0,2.6457513110645907
1540.0,5.0,2.23606797749979
1541.0,11.0,3.3166247903554
1542.0,6.0,2.449489742783178
1543.0,8.0,2.8284271247461903
1544.0,6.0,2.449489742783178
1545.0,14.0,3.7416573867739413
1546.0,8.0,2.8284271247461903
1547.0,11.0,3.3166247903554
1548.0,8.0,2.8284271247461903
1549.0,13.0,3.605551275463989
1550.0,9.0,3.0
1551.0,7.0,2.6457513110645907
1552.0,14.0,3.7416573867739413
1553.0,6.0,2.449489742783178
1554.0,8.0,2.8284271247461903
1555.0,9.0,3.0
1556.0,9.0,3.0
1557.0,7.0,2.6457513110645907
1558.0,7.0,2.6457513110645907
1559.0,8.0,2.8284271247461903
1560.0,8.0,2.8284271247461903
1561.0,16.0,4.0
1562.0,13.0,3.605551275463989
1563.0,13.0,3.605551275463989
1564.0,10.0,3.1622776601683795
1565.0,10.0,3.1622776601683795
1566.0,10.0,3.1622776601683795
1567.0,17.0,4.123105625617661
1568.0,11.0,3.3166247903554
1569.0,8.0,2.8284271247461903
1570.0,7.0,2.6457513110645907
1571.0,13.0,3.605551275463989
1572.0,9.0,3.0
1573.0,9.0,3.0
1574.0,11.0,3.3166247903554
1575.0,19.0,4.358898943540674
1576.0,13.0,3.605551275463989
1577.0,16.0,4.0
1578.0,11.0,3.3166247903554
1579.0,9.0,3.0
1580.0,11.0,3.3166247903554
1581.0,11.0,3.3166247903554
1582.0,14.0,3.7416573867739413
1583.0,11.0,3.3166247903554
1584.0,11.0,3.3166247903554
1585.0,15.0,3.872983346207417
1586.0,20.0,4.47213595499958
1587.0,12.0,3.4641016151377544
1588.0,10.0,3.1622776601683795
1589.0,9.0,3.0
1590.0,15.0,3.872983346207417
1591.0,12.0,3.4641016151377544
1592.0,15.0,3.872983346207417
1593.0,16.0,4.0
1594.0,10.0,3.1622776601683795
1595.0,10.0,3.1622776601683795
1596.0,15.0,3.872983346207417
1597.0,14.0,3.7416573867739413
1598.0,12.0,3.4641016151377544
1599.0,10.0,3.1622776601683795
1600.0,4.0,2.0
1601.0,13.0,3.605551275463989
1602.0,13.0,3.605551275463989
1603.0,17.0,4.123105625617661
1604.0,14.0,3.7416573867739413
1605.0,14.0,3.7416573867739413
1606.0,13.0,3.605551275463989
1607.0,17.0,4.123105625617661
1608.0,20.0,4.47213595499958
1609.0,9.0,3.0
1610.0,12.0,3.4641016151377544
1611.0,15.0,3.872983346207417
1612.0,9.0,3.0
1613.0,13.0,3.605551275463989
1614.0,18.0,4.242640687119285
1615.0,13.0,3.605551275463989
1616.0,11.0,3.3166247903554
1617.0,12.0,3.4641016151377544
1618.0,11.0,3.3166247903554
1619.0,11.0,3.3166247903554
1620.0,15.0,3.872983346207417
1621.0,10.0,3.1622776601683795
1622.0,12.0,3.4641016151377544
1623.0,3.0,1.7320508075688772
1624.0,9.0,3.0
1625.0,7.0,2.6457513110645907
1626.0,5.0,2.23606797749979
1627.0,5.0,2.23606797749979
1628.0,9.0,3.0
1629.0,3.0,1.7320508075688772
1630.0,7.0,2.6457513110645907
1631.0,4.0,2.0
1632.0,4.0,2.0
1633.0,2.0,1.4142135623730951
1634.0,1.0,1.0
1635.0,3.0,1.7320508075688772
1636.0,4.0,2.0
1637.0,1.0,1.0
1638.0,8.0,2.8284271247461903
1639.0,4.0,2.0
1640.0,4.0,2.0
1641.0,3.0,1.7320508075688772
1642.0,1.0,1.0
1643.0,5.0,2.23606797749979
1644.0,6.0,2.449489742783178
1645.0,2.0,1.4142135623730951
1646.0,5.0,2.23606797749979
1647.0,3.0,1.7320508075688772
1648.0,3.0,1.7320508075688772
1649.0,4.0,2.0
1650.0,5.0,2.23606797749979
1651.0,4.0,2.0
1652.0,3.0,1.7320508075688772
1653.0,1.0,1.0
1654.0,6.0,2.449489742783178
1655.0,1.0,1.0
1656.0,2.0,1.4142135623730951
1657.0,5.0,2.23606797749979
1658.0,3.0,1.7320508075688772
1659.0,2.0,1.4142135623730951
1660.0,3.0,1.7320508075688772
1661.0,9.0,3.0
1662.0,6.0,2.449489742783178
1663.0,2.0,1.4142135623730951
1664.0,3.0,1.7320508075688772
1665.0,3.0,1.7320508075688772
1666.0,2.0,1.4142135623730951
1667.0,1.0,1.0
1668.0,5.0,2.23606797749979
1669.0,4.0,2.0
1670.0,1.0,1.0
1671.0,2.0,1.4142135623730951
1672.0,3.0,1.7320508075688772
1673.0,1.0,1.0
1674.0,4.0,2.0
1675.0,0.0,0.0
1676.0,3.0,1.7320508075688772
1677.0,3.0,1.7320508075688772
1678.0,2.0,1.4142135623730951
1679.0,2.0,1.4142135623730951
1680.0,2.0,1.4142135623730951
1681.0,2.0,1.4142135623730951
1682.0,2.0,1.4142135623730951
1683.0,4.0,2.0
1684.0,1.0,1.0
1685.0,3.0,1.7320508075688772
1686.0,2.0,1.4142135623730951
1687.0,2.0,1.4142135623730951
1688.0,2.0,1.4142135623730951
1689.0,2.0,1.4142135623730951
1690.0,5.0,2.23606797749979
1691.0,4.0,2.0
1692.0,2.0,1.4142135623730951
1693.0,1.0,1.0
1694.0,5.0,2.23606797749979
1695.0,2.0,1.4142135623730951
1696.0,3.0,1.7320508075688772
1697.0,8.0,2.8284271247461903
1698.0,3.0,1.7320508075688772
1699.0,1.0,1.0
1700.0,3.0,1.7320508075688772
1701.0,3.0,1.7320508075688772
1702.0,3.0,1.7320508075688772
1703.0,4.0,2.0
1704.0,1.0,1.0
1705.0,4.0,2.0
1706.0,4.0,2.0
1707.0,6.0,2.449489742783178
1708.0,4.0,2.0
1709.0,1.0,1.0
1710.0,1.0,1.0
1711.0,6.0,2.449489742783178
1712.0,4.0,2.0
1713.0,3.0,1.7320508075688772
1714.0,2.0,1.4142135623730951
1715.0,4.0,2.0
1716.0,1.0,1.0
1717.0,5.0,2.23606797749979
1718.0,5.0,2.23606797749979
1719.0,2.0,1.4142135623730951
1720.0,3.0,1.7320508075688772
1721.0,3.0,1.7320508075688772
1722.0,2.0,1.4142135623730951
1723.0,4.0,2.0
1724.0,3.0,1.7320508075688772
1725.0,1.0,1.0
1726.0,2.0,1.4142135623730951
1727.0,1.0,1.0
1728.0,2.0,1.4142135623730951
1729.0,2.0,1.4142135623730951
1730.0,1.0,1.0
1731.0,3.0,1.7320508075688772
1732.0,3.0,1.7320508075688772
1733.0,4.0,2.0
1734.0,5.0,2.23606797749979
1735.0,2.0,1.4142135623730951
1736.0,1.0,1.0
1737.0,4.0,2.0
1738.0,4.0,2.0
1739.0,4.0,2.0
1740.0,1.0,1.0
1741.0,4.0,2.0
1742.0,1.0,1.0
1743.0,3.0,1.7320508075688772
1744.0,6.0,2.449489742783178
1745.0,8.0,2.8284271247461903
1746.0,3.0,1.7320508075688772
1747.0,6.0,2.449489742783178
1748.0,3.0,1.7320508075688772
1749.0,8.0,2.8284271247461903
1750.0,6.0,2.449489742783178
1751.0,3.0,1.7320508075688772
1752.0,4.0,2.0
1753.0,4.0,2.0
1754.0,2.0,1.4142135623730951
1755.0,2.0,1.4142135623730951
1756.0,2.0,1.4142135623730951
1757.0,4.0,2.0
1758.0,6.0,2.449489742783178
1759.0,3.0,1.7320508075688772
1760.0,4.0,2.0
1761.0,6.0,2.449489742783178
1762.0,12.0,3.4641016151377544
1763.0,14.0,3.7416573867739413
1764.0,20.0,4.47213595499958
1765.0,23.0,4.795831523312719
1766.0,39.0,6.244997998398398
1767.0,68.0,8.246211251235321
1768.0,76.0,8.717797887081348
1769.0,78.0,8.831760866327848
1770.0,74.0,8.602325267042627
1771.0,86.0,9.273618495495704
1772.0,71.0,8.426149773176359
1773.0,41.0,6.4031242374328485
1774.0,29.0,5.385164807134504
1775.0,18.0,4.242640687119285
1776.0,8.0,2.8284271247461903
1777.0,16.0,4.0
1778.0,6.0,2.449489742783178
1779.0,9.0,3.0
1780.0,8.0,2.8284271247461903
1781.0,8.0,2.8284271247461903
1782.0,6.0,2.449489742783178
1783.0,14.0,3.7416573867739413
1784.0,7.0,2.6457513110645907
1785.0,9.0,3.0
1786.0,14.0,3.7416573867739413
1787.0,14.0,3.7416573867739413
1788.0,8.0,2.8284271247461903
1789.0,8.0,2.8284271247461903
1790.0,9.0,3.0
1791.0,7.0,2.6457513110645907
1792.0,7.0,2.6457513110645907
1793.0,10.0,3.1622776601683795
1794.0,3.0,1.7320508075688772
1795.0,4.0,2.0
1796.0,2.0,1.4142135623730951
1797.0,3.0,1.7320508075688772
1798.0,2.0,1.4142135623730951
1799.0,7.0,2.6457513110645907
1800.0,8.0,2.8284271247461903
1801.0,4.0,2.0
1802.0,4.0,2.0
1803.0,6.0,2.449489742783178
1804.0,8.0,2.8284271247461903
1805.0,2.0,1.4142135623730951
1806.0,5.0,2.23606797749979
1807.0,6.0,2.449489742783178
1808.0,4.0,2.0
1809.0,2.0,1.4142135623730951
1810.0,2.0,1.4142135623730951
1811.0,3.0,1.7320508075688772
1812.0,3.0,1.7320508075688772
1813.0,2.0,1.4142135623730951
1814.0,4.0,2.0
1815.0,3.0,1.7320508075688772
1816.0,1.0,1.0
1817.0,2.0,1.4142135623730951
1818.0,0.0,0.0
1819.0,5.0,2.23606797749979
1820.0,4.0,2.0
1821.0,4.0,2.0
1822.0,7.0,2.6457513110645907
1823.0,8.0,2.8284271247461903
1824.0,4.0,2.0
1825.0,4.0,2.0
1826.0,3.0,1.7320508075688772
1827.0,2.0,1.4142135623730951
1828.0,4.0,2.0
1829.0,3.0,1.7320508075688772
1830.0,5.0,2.23606797749979
1831.0,2.0,1.4142135623730951
1832.0,2.0,1.4142135623730951
1833.0,4.0,2.0
1834.0,2.0,1.4142135623730951
1835.0,3.0,1.7320508075688772
1836.0,5.0,2.23606797749979
1837.0,4.0,2.0
1838.0,2.0,1.4142135623730951
1839.0,1.0,1.0
1840.0,4.0,2.0
1841.0,5.0,2.23606797749979
1842.0,1.0,1.0
1843.0,2.0,1.4142135623730951
1844.0,3.0,1.7320508075688772
1845.0,3.0,1.7320508075688772
1846.0,1.0,1.0
1847.0,1.0,1.0
1848.0,3.0,1.7320508075688772
1849.0,2.0,1.4142135623730951
1850.0,3.0,1.7320508075688772
1851.0,5.0,2.23606797749979
1852.0,1.0,1.0
1853.0,1.0,1.0
1854.0,2.0,1.4142135623730951
1855.0,1.0,1.0
1856.0,5.0,2.23606797749979
1857.0,4.0,2.0
1858.0,4.0,2.0
1859.0,2.0,1.4142135623730951
1860.0,3.0,1.7320508075688772
1861.0,1.0,1.0
1862.0,5.0,2.23606797749979
1863.0,4.0,2.0
1864.0,6.0,2.449489742783178
1865.0,0.0,0.0
1866.0,3.0,1.7320508075688772
1867.0,2.0,1.4142135623730951
1868.0,3.0,1.7320508075688772
1869.0,3.0,1.7320508075688772
1870.0,1.0,1.0
1871.0,3.0,1.7320508075688772
1872.0,1.0,1.0
1873.0,0.0,0.0
1874.0,1.0,1.0
1875.0,1.0,1.0
1876.0,4.0,2.0
1877.0,2.0,1.4142135623730951
1878.0,2.0,1.4142135623730951
1879.0,4.0,2.0
1880.0,0.0,0.0
1881.0,4.0,2.0
1882.0,4.0,2.0
1883.0,2.0,1.4142135623730951
1884.0,2.0,1.4142135623730951
1885.0,4.0,2.0
1886.0,3.0,1.7320508075688772
1887.0,3.0,1.7320508075688772
1888.0,4.0,2.0
1889.0,7.0,2.6457513110645907
1890.0,2.0,1.4142135623730951
1891.0,4.0,2.0
1892.0,3.0,1.7320508075688772
1893.0,2.0,1.4142135623730951
1894.0,0.0,0.0
1895.0,5.0,2.23606797749979
1896.0,3.0,1.7320508075688772
1897.0,1.0,1.0
1898.0,2.0,1.4142135623730951
1899.0,5.0,2.23606797749979
1900.0,4.0,2.0
1901.0,2.0,1.4142135623730951
1902.0,2.0,1.4142135623730951
1903.0,3.0,1.7320508075688772
1904.0,3.0,1.7320508075688772
1905.0,1.0,1.0
1906.0,2.0,1.4142135623730951
1907.0,4.0,2.0
1908.0,0.0,0.0
1909.0,1.0,1.0
1910.0,4.0,2.0
1911.0,2.0,1.4142135623730951
1912.0,3.0,1.7320508075688772
1913.0,2.0,1.4142135623730951
1914.0,3.0,1.7320508075688772
1915.0,8.0,2.8284271247461903
1916.0,2.0,1.4142135623730951
1917.0,6.0,2.449489742783178
1918.0,2.0,1.4142135623730951
1919.0,3.0,1.7320508075688772
1920.0,3.0,1.7320508075688772
1921.0,6.0,2.449489742783178
1922.0,2.0,1.4142135623730951
1923.0,1.0,1.0
1924.0,4.0,2.0
1925.0,1.0,1.0
1926.0,4.0,2.0
1927.0,5.0,2.23606797749979
1928.0,2.0,1.4142135623730951
1929.0,3.0,1.7320508075688772
1930.0,3.0,1.7320508075688772
1931.0,5.0,2.23606797749979
1932.0,0.0,0.0
1933.0,3.0,1.7320508075688772
1934.0,5.0,2.23606797749979
1935.0,0.0,0.0
1936.0,2.0,1.4142135623730951
1937.0,1.0,1.0
1938.0,6.0,2.449489742783178
1939.0,6.0,2.449489742783178
1940.0,4.0,2.0
1941.0,5.0,2.23606797749979
1942.0,3.0,1.7320508075688772
1943.0,6.0,2.449489742783178
1944.0,2.0,1.4142135623730951
1945.0,1.0,1.0
1946.0,0.0,0.0
1947.0,3.0,1.7320508075688772
1948.0,2.0,1.4142135623730951
1949.0,0.0,0.0
1950.0,3.0,1.7320508075688772
1951.0,2.0,1.4142135623730951
1952.0,6.0,2.449489742783178
1953.0,5.0,2.23606797749979
1954.0,4.0,2.0
1955.0,3.0,1.7320508075688772
1956.0,1.0,1.0
1957.0,3.0,1.7320508075688772
1958.0,5.0,2.23606797749979
1959.0,5.0,2.23606797749979
1960.0,3.0,1.7320508075688772
1961.0,4.0,2.0
1962.0,1.0,1.0
1963.0,1.0,1.0
1964.0,2.0,1.4142135623730951
1965.0,7.0,2.6457513110645907
1966.0,4.0,2.0
1967.0,1.0,1.0
1968.0,5.0,2.23606797749979
1969.0,2.0,1.4142135623730951
1970.0,1.0,1.0
1971.0,5.0,2.23606797749979
1972.0,3.0,1.7320508075688772
1973.0,5.0,2.23606797749979
1974.0,3.0,1.7320508075688772
1975.0,5.0,2.23606797749979
1976.0,5.0,2.23606797749979
1977.0,1.0,1.0
1978.0,0.0,0.0
1979.0,4.0,2.0
1980.0,3.0,1.7320508075688772
1981.0,3.0,1.7320508075688772
1982.0,2.0,1.4142135623730951
1983.0,3.0,1.7320508075688772
1984.0,0.0,0.0
1985.0,3.0,1.7320508075688772
1986.0,2.0,1.4142135623730951
1987.0,5.0,2.23606797749979
1988.0,4.0,2.0
1989.0,4.0,2.0
1990.0,1.0,1.0
1991.0,4.0,2.0
1992.0,1.0,1.0
1993.0,3.0,1.7320508075688772
1994.0,1.0,1.0
1995.0,2.0,1.4142135623730951
1996.0,1.0,1.0
1997.0,3.0,1.7320508075688772
1998.0,4.0,2.0
1999.0,2.0,1.4142135623730951
2000.0,1.0,1.0
2001.0,3.0,1.7320508075688772
2002.0,2.0,1.4142135623730951
2003.0,2.0,1.4142135623730951
2004.0,1.0,1.0
2005.0,3.0,1.7320508075688772
2006.0,3.0,1.7320508075688772
2007.0,3.0,1.7320508075688772
2008.0,1.0,1.0
2009.0,3.0,1.7320508075688772
2010.0,3.0,1.7320508075688772
2011.0,8.0,2.8284271247461903
2012.0,1.0,1.0
2013.0,4.0,2.0
2014.0,2.0,1.4142135623730951
2015.0,4.0,2.0
2016.0,3.0,1.7320508075688772
2017.0,5.0,2.23606797749979
2018.0,2.0,1.4142135623730951
2019.0,8.0,2.8284271247461903
2020.0,5.0,2.23606797749979
2021.0,5.0,2.23606797749979
2022.0,5.0,2.23606797749979
2023.0,0.0,0.0
2024.0,4.0,2.0
2025.0,1.0,1.0
2026.0,7.0,2.6457513110645907
2027.0,7.0,2.6457513110645907
2028.0,3.0,1.7320508075688772
2029.0,2.0,1.4142135623730951
2030.0,4.0,2.0
2031.0,3.0,1.7320508075688772
2032.0,0.0,0.0
2033.0,3.0,1.7320508075688772
2034.0,5.0,2.23606797749979
2035.0,1.0,1.0
2036.0,4.0,2.0
2037.0,1.0,1.0
2038.0,2.0,1.4142135623730951
2039.0,1.0,1.0
2040.0,6.0,2.449489742783178
2041.0,5.0,2.23606797749979
2042.0,5.0,2.23606797749979
2043.0,4.0,2.0
2044.0,3.0,1.7320508075688772
2045.0,3.0,1.7320508075688772
2046.0,0.0,0.0
2047.0,0.0,0.0
2048.0
